{
  "extends": [
    "config:recommended",
    ":preserveSemverRanges",
    "regexManagers:dockerfileVersions",
    "workarounds:bitnamiDockerImageVersioning",
    "schedule:weekly"
  ],
  "timezone": "America/Los_Angeles",
  "osvVulnerabilityAlerts": true,
  "bundler": {
    "enabled": true,
    "fileMatch": [
      "^tidewater/bin/tidewater_consumer$"
    ]
  },
  "docker-compose": {
    "fileMatch": [
      "^docker-compose/.*\\.ya?ml$"
    ]
  },
  "gitlabci": {
    "fileMatch": [
      "^ci/.*\\.ya?ml$"
    ]
  },
  "prHourlyLimit": 5,
  "prConcurrentLimit": 20,
  "rebaseWhen": "never",
  "labels": [
    "dependencies"
  ],
  "customManagers": [
    {
      "customType": "regex",
      "fileMatch": [
        "^ci/base/build_shared_images\\.yml$",
        "^comet/Dockerfile$"
      ],
      "matchStrings": [
        ".+?build_shared_ruby\\s'(base|prod)'\\s'(?<currentValue>.+?)'\\s.*",
        "registry\\.gitlab\\.com/surfliner/surfliner/ruby-([a-z]+?)/(?<currentValue>.+?)@(?<currentDigest>sha256:[a-f0-9]+)"
      ],
      "datasourceTemplate": "docker",
      "depNameTemplate": "ruby"
    },
    {
      "customType": "regex",
      "fileMatch": [
        "^ci/base/build_shared_images\\.yml$"
      ],
      "matchStrings": [
        ".+?build_shared\\s'(base|prod)'\\s'\\d\\.\\d\\.\\d'\\s'(?<currentValue>.+?)'"
      ],
      "datasourceTemplate": "docker",
      "depNameTemplate": "alpine"
    },
    {
      "customType": "regex",
      "fileMatch": [
        "^ci/.*\\.ya?ml$"
      ],
      "matchStrings": [
        ".+?deploy\\soci://(?<depName>.+?)\\s--version\\s(?<currentValue>.+?)\\s.*"
      ],
      "datasourceTemplate": "docker"
    },
    {
      "customType": "regex",
      "fileMatch": [
        "^ci/base/rabbitmq_operator.yml$"
      ],
      "matchStrings": [
        "RABBITMQ_OPERATOR_VERSION:\\s(?<currentValue>.+)"
      ],
      "datasourceTemplate": "github-releases",
      "depNameTemplate": "rabbitmq/cluster-operator"
    },
    {
      "customType": "regex",
      "fileMatch": [
        "^\\.gitlab-ci\\.yml$"
      ],
      "matchStrings": [
        "JQ_VERSION:\\s(?<currentValue>.+)"
      ],
      "datasourceTemplate": "github-releases",
      "depNameTemplate": "stedolan/jq"
    },
    {
      "customType": "regex",
      "fileMatch": [
        "^charts/geoserver/Chart.yaml$"
      ],
      "matchStrings": [
        "^appversion:\\ (?<currentValue>.+?)$"
      ],
      "datasourceTemplate": "docker",
      "depNameTemplate": "kartoza/geoserver"
    }
  ],
  "packageRules": [
    {
      "groupName": "ruby non-major dependencies",
      "groupSlug": "ruby-minor-patch",
      "matchPackageNames": ["!/^(rails|blacklight|valkyrie)/"],
      "matchManagers": [
        "bundler"
      ],
      "matchUpdateTypes": [
        "minor",
        "patch"
      ]
    },
    {
      "groupName": "docker non-major dependencies",
      "groupSlug": "docker-minor-patch",
      "matchDatasources": [
        "docker"
      ],
      "matchUpdateTypes": [
        "minor",
        "patch"
      ]
    },
    {
      "groupName": "npm non-major dependencies",
      "groupSlug": "npm-minor-patch",
      "matchDatasources": [
        "npm"
      ],
      "matchUpdateTypes": [
        "minor",
        "patch"
      ]
    },
    {
      "groupName": "helm non-major dependencies",
      "groupSlug": "helm-minor-patch",
      "matchDatasources": [
        "helm"
      ],
      "matchUpdateTypes": [
        "minor",
        "patch"
      ]
    }
  ]
}
